{
 "actions": [],
 "creation": "2021-03-10 18:32:11.611967",
 "doctype": "DocType",
 "editable_grid": 1,
 "engine": "InnoDB",
 "field_order": [
  "category_type",
  "column_break_2",
  "category_sub_type",
  "column_break_4",
  "category_name"
 ],
 "fields": [
  {
   "fieldname": "column_break_2",
   "fieldtype": "Column Break"
  },
  {
   "fieldname": "category_type",
   "fieldtype": "Link",
   "in_list_view": 1,
   "label": "Category Type",
   "options": "Type",
   "reqd": 1
  },
  {
   "allow_in_quick_entry": 1,
   "fieldname": "category_sub_type",
   "fieldtype": "Link",
   "in_list_view": 1,
   "label": "Category Sub Type",
   "options": "Category Sub Type",
   "reqd": 1
  },
  {
   "fieldname": "column_break_4",
   "fieldtype": "Column Break"
  },
  {
   "allow_in_quick_entry": 1,
   "fieldname": "category_name",
   "fieldtype": "Link",
   "in_list_view": 1,
   "in_preview": 1,
   "label": "Category Name",
   "options": "Category Name",
   "reqd": 1
  }
 ],
 "index_web_pages_for_search": 1,
 "istable": 1,
 "links": [],
 "modified": "2021-03-16 16:03:00.040879",
 "modified_by": "Administrator",
 "module": "Master",
 "name": "Add Resource",
 "owner": "Administrator",
 "permissions": [],
 "quick_entry": 1,
 "sort_field": "modified",
 "sort_order": "DESC",
 "track_changes": 1
}