{
 "actions": [],
 "autoname": "field:designation_name",
 "creation": "2021-03-05 19:23:23.810746",
 "doctype": "DocType",
 "editable_grid": 1,
 "engine": "InnoDB",
 "field_order": [
  "designation_name",
  "comments"
 ],
 "fields": [
  {
   "fieldname": "designation_name",
   "fieldtype": "Data",
   "in_list_view": 1,
   "label": "Designation Name",
   "reqd": 1,
   "unique": 1
  },
  {
   "allow_in_quick_entry": 1,
   "fieldname": "comments",
   "fieldtype": "Small Text",
   "label": "Comments"
  }
 ],
 "index_web_pages_for_search": 1,
 "links": [],
 "modified": "2021-03-15 10:47:05.163077",
 "modified_by": "Administrator",
 "module": "Master",
 "name": "Designation Master",
 "owner": "Administrator",
 "permissions": [
  {
   "create": 1,
   "delete": 1,
   "email": 1,
   "export": 1,
   "print": 1,
   "read": 1,
   "report": 1,
   "role": "System Manager",
   "share": 1,
   "write": 1
  },
  {
   "create": 1,
   "delete": 1,
   "email": 1,
   "export": 1,
   "print": 1,
   "read": 1,
   "report": 1,
   "role": "fhts_admin_role",
   "share": 1,
   "write": 1
  }
 ],
 "quick_entry": 1,
 "sort_field": "modified",
 "sort_order": "DESC",
 "track_changes": 1
}