{
 "actions": [],
 "creation": "2021-03-18 17:05:06.397920",
 "doctype": "DocType",
 "editable_grid": 1,
 "engine": "InnoDB",
 "field_order": [
  "task",
  "category_type",
  "column_break_2",
  "category_sub_type",
  "column_break_4",
  "category_name"
 ],
 "fields": [
  {
   "fieldname": "task",
   "fieldtype": "Data",
   "hidden": 1,
   "label": "Task"
  },
  {
   "fieldname": "category_type",
   "fieldtype": "Link",
   "in_list_view": 1,
   "label": "Category Type",
   "options": "Type",
   "reqd": 1
  },
  {
   "fieldname": "column_break_2",
   "fieldtype": "Column Break"
  },
  {
   "allow_in_quick_entry": 1,
   "fieldname": "category_sub_type",
   "fieldtype": "Link",
   "in_list_view": 1,
   "label": "Category Sub Type",
   "options": "Category Sub Type",
   "reqd": 1
  },
  {
   "fieldname": "column_break_4",
   "fieldtype": "Column Break"
  },
  {
   "allow_in_quick_entry": 1,
   "fieldname": "category_name",
   "fieldtype": "Link",
   "in_list_view": 1,
   "in_preview": 1,
   "label": "Category Name",
   "options": "Category Name",
   "reqd": 1
  }
 ],
 "index_web_pages_for_search": 1,
 "links": [],
 "modified": "2021-03-18 17:05:06.397920",
 "modified_by": "Administrator",
 "module": "Master",
 "name": "Task Add Resource",
 "owner": "Administrator",
 "permissions": [
  {
   "create": 1,
   "delete": 1,
   "email": 1,
   "export": 1,
   "print": 1,
   "read": 1,
   "report": 1,
   "role": "System Manager",
   "share": 1,
   "write": 1
  }
 ],
 "quick_entry": 1,
 "sort_field": "modified",
 "sort_order": "DESC",
 "track_changes": 1
}