{
 "actions": [],
 "autoname": "field:staff_name",
 "creation": "2021-03-03 13:45:18.912095",
 "doctype": "DocType",
 "engine": "InnoDB",
 "field_order": [
  "organization_name",
  "staff_name",
  "designation",
  "mobile_no",
  "email",
  "column_break_4",
  "job_description",
  "notes",
  "attechments_section",
  "attechments",
  "attach_9",
  "attach_10",
  "column_break_16",
  "attach_11",
  "attach_12"
 ],
 "fields": [
  {
   "bold": 1,
   "fieldname": "mobile_no",
   "fieldtype": "Data",
   "in_list_view": 1,
   "in_preview": 1,
   "label": "Mobile No.",
   "search_index": 1
  },
  {
   "fieldname": "email",
   "fieldtype": "Data",
   "label": "Email"
  },
  {
   "fieldname": "designation",
   "fieldtype": "Link",
   "in_list_view": 1,
   "in_preview": 1,
   "label": "Designation",
   "options": "Designation Master"
  },
  {
   "fieldname": "notes",
   "fieldtype": "Small Text",
   "label": "Notes",
   "width": "0"
  },
  {
   "fieldname": "attechments",
   "fieldtype": "Attach",
   "label": "Attechments"
  },
  {
   "fieldname": "attach_9",
   "fieldtype": "Attach"
  },
  {
   "fieldname": "attach_10",
   "fieldtype": "Attach"
  },
  {
   "fieldname": "attach_11",
   "fieldtype": "Attach"
  },
  {
   "fieldname": "attach_12",
   "fieldtype": "Attach"
  },
  {
   "bold": 1,
   "default": "org",
   "fieldname": "organization_name",
   "fieldtype": "Data",
   "label": "Organization name",
   "read_only": 1
  },
  {
   "fieldname": "column_break_4",
   "fieldtype": "Column Break"
  },
  {
   "fieldname": "column_break_16",
   "fieldtype": "Column Break"
  },
  {
   "fieldname": "job_description",
   "fieldtype": "Data",
   "label": "Job Description "
  },
  {
   "fieldname": "staff_name",
   "fieldtype": "Data",
   "label": "Staff Name",
   "unique": 1
  },
  {
   "collapsible": 1,
   "fieldname": "attechments_section",
   "fieldtype": "Section Break",
   "label": "Attechments"
  }
 ],
 "istable": 1,
 "links": [],
 "modified": "2021-03-16 12:46:39.687297",
 "modified_by": "Administrator",
 "module": "Master",
 "name": "Staff Master",
 "owner": "Administrator",
 "permissions": [],
 "sort_field": "modified",
 "sort_order": "DESC",
 "track_changes": 1
}