{
 "actions": [],
 "autoname": "filed:t_name",
 "creation": "2021-03-01 12:33:19.979782",
 "doctype": "DocType",
 "editable_grid": 1,
 "engine": "InnoDB",
 "field_order": [
  "t_name",
  "trade_1"
 ],
 "fields": [
  {
   "allow_in_quick_entry": 1,
   "fieldname": "trade_1",
   "fieldtype": "Link",
   "in_list_view": 1,
   "label": "Resource Type",
   "options": "Resource Type",
   "reqd": 1
  },
  {
   "allow_in_quick_entry": 1,
   "bold": 1,
   "fieldname": "t_name",
   "fieldtype": "Data",
   "in_preview": 1,
   "label": "Name",
   "reqd": 1
  }
 ],
 "index_web_pages_for_search": 1,
 "links": [],
 "modified": "2021-03-02 16:54:55.881647",
 "modified_by": "Administrator",
 "module": "Master",
 "name": "Trade",
 "owner": "Administrator",
 "permissions": [
  {
   "create": 1,
   "delete": 1,
   "email": 1,
   "export": 1,
   "print": 1,
   "read": 1,
   "report": 1,
   "role": "System Manager",
   "share": 1,
   "write": 1
  },
  {
   "create": 1,
   "delete": 1,
   "email": 1,
   "export": 1,
   "print": 1,
   "read": 1,
   "report": 1,
   "role": "fhts_admin_role",
   "share": 1,
   "write": 1
  }
 ],
 "quick_entry": 1,
 "sort_field": "modified",
 "sort_order": "DESC",
 "title_field": "t_name",
 "track_changes": 1
}